
#################################################################
#                                                               #
#            CrayPat-lite Performance Statistics                #
#                                                               #
#################################################################

CrayPat/X:  Version 20.10.0 Revision 7ec62de47  09/16/20 16:54:26
Experiment:                  lite  lite-samples
Number of PEs (MPI ranks):      1
Numbers of PEs per Node:        1
Numbers of Threads per PE:      1
Number of Cores per Socket:    12
Execution start time:  Mon Apr  5 20:41:05 2021
System name and speed:  nid04282  2.601 GHz (nominal)
Intel Haswell    CPU  Family:  6  Model: 63  Stepping:  2
DRAM:  64 GiB DDR4-2400 on 2.6 GHz nodes



Avg Process Time:          3.19 secs         
High Memory:               22.0 MiBytes 22.0 MiBytes per PE
Observed CPU clock boost: 123.3 %      
Percent cycles stalled:    49.9 %      
Instr per Cycle:           1.99

Notes for table 1:

  This table shows functions that have significant exclusive sample
    hits, averaged across ranks.
  For further explanation, see the "General table notes" below,
    or use:  pat_report -v -O samp_profile ...

Table 1:  Profile by Function

  Samp% |  Samp | Imb. |  Imb. | Group
        |       | Samp | Samp% |  Function=[MAX10]
       
 100.0% | 314.0 |   -- |    -- | Total
|---------------------------------------------------------
|  92.0% | 289.0 |   -- |    -- | USER
||--------------------------------------------------------
||  52.5% | 165.0 |   -- |    -- | forces
||  35.4% | 111.0 |   -- |    -- | std::vector<>::operator[]
||   4.1% |  13.0 |   -- |    -- | std::sqrt
||========================================================
|   8.0% |  25.0 |   -- |    -- | MATH
||--------------------------------------------------------
||   8.0% |  25.0 |   -- |    -- | sqrtf
|=========================================================

Notes for table 2:

  This table shows functions, and line numbers within functions, that
    have significant exclusive sample hits, averaged across ranks.
  For further explanation, see the "General table notes" below,
    or use:  pat_report -v -O samp_profile+src ...

Table 2:  Profile by Group, Function, and Line

  Samp% |  Samp | Imb. |  Imb. | Group
        |       | Samp | Samp% |  Function=[MAX10]
        |       |      |       |   Source
        |       |      |       |    Line
       
 100.0% | 314.0 |   -- |    -- | Total
|-----------------------------------------------------------------------------
|  92.0% | 289.0 |   -- |    -- | USER
||----------------------------------------------------------------------------
||  52.5% | 165.0 |   -- |    -- | forces
|||---------------------------------------------------------------------------
3||  45.9% | 144.0 |   -- |    -- | nzala/hpc_esc_401/exercise_session_05/forces.cpp
||||--------------------------------------------------------------------------
4|||   4.8% |  15.0 |   -- |    -- | line.8
4|||   3.2% |  10.0 |   -- |    -- | line.10
4|||   7.6% |  24.0 |   -- |    -- | line.12
4|||  23.6% |  74.0 |   -- |    -- | line.14
4|||   6.4% |  20.0 |   -- |    -- | line.15
||||==========================================================================
3||   3.5% |  11.0 |   -- |    -- | snos/include/g++/cmath
4||        |       |      |       |  line.464
3||   3.2% |  10.0 |   -- |    -- | include/g++/bits/stl_vector.h
4||        |       |      |       |  line.1046
|||===========================================================================
||  35.4% | 111.0 |   -- |    -- | std::vector<>::operator[]
3|        |       |      |       |  nzala/hpc_esc_401/exercise_session_05/forces.cpp
||||--------------------------------------------------------------------------
4|||  25.2% |  79.0 |   -- |    -- | line.14
4|||   4.1% |  13.0 |   -- |    -- | line.15
4|||   6.1% |  19.0 |   -- |    -- | line.16
||||==========================================================================
||   4.1% |  13.0 |   -- |    -- | std::sqrt
3|        |       |      |       |  nzala/hpc_esc_401/exercise_session_05/forces.cpp
4|        |       |      |       |   line.13
||============================================================================
|   8.0% |  25.0 |   -- |    -- | MATH
||----------------------------------------------------------------------------
||   8.0% |  25.0 |   -- |    -- | sqrtf
|=============================================================================

Observation:  MPI utilization

    No suggestions were made because each node has only one rank.


Observation:  Program sensitivity to memory latency

    The relatively low memory bandwidth utilization but significant rate
    of stalls in the program suggest that its performance is limited by
    memory latency.
    It could be beneficial to improve prefetching in loops in functions
    high in the profile, by modifying compiler-generated prefetches or
    inserting directives into the source code.


Notes for table 3:

  This table shows memory traffic for numa nodes, taking for each numa
    node the maximum value across nodes. It also shows the balance in
    memory traffic by showing the top 3 and bottom 3 node values.
  For further explanation, see the "General table notes" below,
    or use:  pat_report -v -O mem_bw ...

Table 3:  Memory Bandwidth by Numanode

  Memory |   Local |   Thread |  Memory |  Memory | Numanode
 Traffic |  Memory |     Time | Traffic | Traffic | 
  GBytes | Traffic |          |  GBytes |       / | 
         |  GBytes |          |   / Sec | Nominal | 
         |         |          |         |    Peak | 
|-------------------------------------------------------------
|    0.00 |    0.00 | 3.174626 |    0.00 |    0.0% | numanode.0
|=============================================================

Notes for table 4:

  This table shows energy and power usage for the nodes with the
    maximum, mean, and minimum usage, as well as the sum of usage over
    all nodes.
    Energy and power for accelerators is also shown, if applicable.
  For further explanation, see the "General table notes" below,
    or use:  pat_report -v -O program_energy ...

Table 4:  Program energy and power usage (from Cray PM)

   Node |     Node |  Process | Total
 Energy |    Power |     Time | 
    (J) |      (W) |          | 
-------------------------------------
    339 |  106.231 | 3.191169 | Total
=====================================
Program invocation:  /users/nzala/hpc_esc_401/exercise_session_05/nbody

For a complete report with expanded tables and notes, run:
  pat_report /users/nzala/hpc_esc_401/exercise_session_05/nbody+15975-4282s

For help identifying callers of particular functions:
  pat_report -O callers+src /users/nzala/hpc_esc_401/exercise_session_05/nbody+15975-4282s
To see the entire call tree:
  pat_report -O calltree+src /users/nzala/hpc_esc_401/exercise_session_05/nbody+15975-4282s

For interactive, graphical performance analysis, run:
  app2 /users/nzala/hpc_esc_401/exercise_session_05/nbody+15975-4282s

================  End of CrayPat-lite output  ==========================
