slurmstepd: error: *** STEP 30759949.0 ON nid03510 CANCELLED AT 2021-04-20T19:12:40 DUE TO TIME LIMIT ***
srun: got SIGCONT
srun: forcing job termination


Batch Job Summary Report (version 21.01.1) for Job "ring_deadlock" (30759949) on daint

Job information (1/2)
-----------------------------------------------------------------------------------------------------
             Submit            Eligible               Start                 End    Elapsed Time limit
------------------- ------------------- ------------------- ------------------- ---------- ----------
2021-04-20T19:07:24 2021-04-20T19:07:24 2021-04-20T19:07:27 2021-04-20T19:12:38   00:05:11   00:05:00
-----------------------------------------------------------------------------------------------------

Job information (2/2)
-------------------------------------------------------------
    Username      Account    Partition   NNodes        Energy
------------ ------------ ------------ -------- -------------
       nzala         uzg2        debug        1     36.892 kJ

